
Running command: "ls -la"
=========================


Running command: "date"
=======================


Results:
========

 * ls -la: ✔
 * date: ✔

 [OK] 2 out of 2 tasks have passed. Good job!                                   

